…
# here I am joining the data frames so I am able to see the predicted
# average rating from the simple model and the model with both
# variables in one place compared to the actual `average_rating`

games_play_all_pred %>%
  mutate(.pred_all = .pred, .keep = "unused") %>%
  right_join(games_play_pred) %>%
  select(.pred, .pred_all, average_rating, everything())
```

    ## Joining, by = c("game_id", "description", "image", "max_players", "max_playtime", "min_age", "min_players", "min_playtime", "name", "playing_time", "thumbnail", "year_published", "artist", "category", "compilation", "designer", "expansion", "family", "mechanic", "publisher", "average_rating", "users_rated")

    ## # A tibble: 2,034 x 24
    ##    .pred .pred_all average_rating game_id description image max_players
    ##    <dbl>     <dbl>          <dbl>   <dbl> <chr>       <chr>       <dbl>
    ##  1  6.42      6.37           6.61       4 When you s… //cf…           4
    ##  2  6.42      6.37           6.75      10 Elfenland … //cf…           6
    ##  3  6.33      6.28           7.07      11 Bohnanza i… //cf…           7
    ##  4  6.42      6.51           7.48      12 Ra is an a… //cf…           5
    ##  5  6.64      7.04           7.15      18 The robots… //cf…           8
    ##  6  6.55      6.48           7.44      20 In this ga… //cf…           4
    ##  7  6.86      6.76           7.14      22 From the 2… //cf…          16
    ##  8  6.20      6.17           6.04      32 In Bison, … //cf…           2
    ##  9  6.64      6.56           5.70      37 This odd l… //cf…           4
    ## 10  6.42      6.37           6.45      44 This game … //cf…           6
    ## # … with 2,024 more rows, and 17 more variables: max_playtime <dbl>,
    ## #   min_age <dbl>, min_players <dbl>, min_playtime <dbl>, name <chr>,
    ## #   playing_time <dbl>, thumbnail <chr>, year_published <dbl>, artist <chr>,
    ## #   category <chr>, compilation <chr>, designer <chr>, expansion <chr>,
    ## #   family <chr>, mechanic <chr>, publisher <chr>, users_rated <dbl>
…
